0.2789245 9.787497 0.7673417
0.2789245 9.787497 0.7673417
0.51714754 9.7563715 1.4149733
0.5686229 9.805453 1.5741876
0.5686229 9.805453 1.5741876
0.34237084 9.884461 0.8379706
0.41180268 9.859323 1.0402806
0.41180268 9.859323 1.0402806
0.07062895 9.913192 1.0402806
0.07062895 9.913192 1.0402806
0.7182605 9.713276 1.3072342
0.7182605 9.713276 1.3072342
0.23223756 9.890448 1.1468226
0.23223756 9.890448 1.1468226
0.077811554 9.8437605 1.1959038
0.077811554 9.8437605 1.1959038
0.41060558 9.825804 1.4496891
0.2693477 9.883265 1.1552023
0.2693477 9.883265 1.1552023
0.40342298 9.90601 0.9756372
0.40342298 9.90601 0.9756372
0.40342298 9.90601 0.9756372
0.8750807 9.895236 1.0151415
0.7038953 9.901221 1.163582
0.62129533 10.001778 0.89064306
0.62129533 10.001778 0.89064306
0.6907272 9.939528 1.0199299
0.712275 9.933543 0.92057055
0.78649527 9.88925 1.0175357
0.58298814 9.902418 1.1216835
0.58418524 9.901221 0.90979666
0.7206547 9.874885 0.8619126
0.6799533 9.834184 1.1923125
0.32202014 9.859323 0.8726865
0.32202014 9.859323 0.8726865
0.32202014 9.859323 0.8726865
0.5255273 9.80665 1.2437878
0.6488287 9.792285 1.0043676
0.58298814 9.7719345 0.8487445
0.35075054 9.659407 0.9959879
0.21188685 9.635465 1.0845734
0.2873042 9.526528 0.82480246
0.5710171 9.487024 0.80564886
0.6584055 9.437943 0.7410054
0.35434186 9.391256 0.93134445
0.4189853 9.398438 0.82240826
0.78769237 9.19972 1.055843
0.81881696 9.119514 1.0630256
1.0953473 9.03452 1.0845734
0.34955344 9.0716305 1.0163386
0.6655881 9.01776 1.1025299
1.3383588 8.768764 1.3299791
1.5310919 8.48984 1.436521
1.4329298 8.468291 1.3000516
1.6053122 8.377312 1.4951789
1.6053122 8.377312 1.4951789
2.2888567 8.024167 1.8854338
2.2888567 8.024167 1.8854338
1.9309237 8.468291 0.58418524
0.6596026 8.966286 0.36511576
0.79367787 8.500613 3.110068
0.79367787 8.500613 3.110068
1.1145009 8.511387 2.4636335
0.94092125 8.696938 0.9600749
0.91937345 8.702923 1.1468226
0.91937345 8.702923 1.1468226
1.4257472 8.408437 2.9759927
1.1336545 8.520964 5.213374
1.1336545 8.520964 5.213374
1.6579847 9.279925 0.81043726
1.6579847 9.279925 0.81043726
1.5514427 9.633071 1.9189527
0.44532153 9.967062 3.3626564
-0.9888053 10.230424 2.8778305
-0.8463503 10.019734 4.11683
0.2801216 10.5045595 3.952827
1.4856021 9.618706 6.0369797
1.4856021 9.618706 6.0369797
-0.07182605 9.427169 4.370615
-0.07182605 9.427169 4.370615
0.33758244 9.690532 4.6363716
0.33758244 9.690532 4.6363716
1.8411411 8.772355 5.281609
-1.0319009 9.391256 0.18195933
-1.0319009 9.391256 0.18195933
-1.42455 9.96347 3.4464533
0.51834464 9.854534 6.171055
0.51834464 9.854534 6.171055
-1.412579 10.456676 2.4061728
-1.412579 10.456676 2.4061728
-1.3838485 10.454282 6.1926026
-0.40102878 10.737994 7.9954367
-0.40102878 10.737994 7.9954367
-0.61890113 11.386824 5.875371
-0.20949265 10.9343195 6.599617
0.019153614 10.605117 6.88333
0.019153614 10.605117 6.88333
0.31244332 10.26514 6.081272
0.3878607 9.742006 5.3462524
0.1316811 9.307459 5.3857565
0.1316811 9.307459 5.3857565
1.282095 9.204509 5.446809
1.282095 9.204509 5.446809
0.89543146 9.244013 4.9919105
0.61291564 9.180567 4.7656584
0.61291564 9.180567 4.7656584
0.9588778 9.064447 4.981137
1.0749966 9.102755 5.1810527
0.32202014 9.537302 5.044583
0.12928689 10.016143 4.4208937
0.5410896 10.1226845 4.2197804
0.770933 10.125079 4.289212
1.3156139 10.052056 5.08289
1.3156139 10.052056 5.08289
-0.17836803 9.991004 5.233725
-0.17836803 9.991004 5.233725
0.11971009 9.489418 6.9862804
0.11971009 9.489418 6.9862804
-0.6572084 9.215282 4.746505
-0.5363012 8.998607 3.715801
-0.5363012 8.998607 3.715801
-0.4249708 8.899248 5.568913
-0.4249708 8.899248 5.568913
-0.7015011 9.0081835 3.4739866
-0.7015011 9.0081835 3.4739866
-0.34955344 8.949526 3.9851487
-1.1192893 8.816648 4.260482
-1.1192893 8.816648 4.260482
-0.45729253 8.845378 3.5218706
-0.45729253 8.845378 3.5218706
-0.62488663 8.871715 4.0043025
-1.3156139 9.018958 3.7062242
-1.3156139 9.018958 3.7062242
-1.4532804 9.091981 2.9233203
-1.4532804 9.091981 2.9233203
-0.78888947 9.054871 3.2908301
-1.6579847 9.320627 2.457648
-1.6579847 9.320627 2.457648
-0.3890578 9.13388 3.3566709
-1.0773908 9.212888 2.9257145
-0.60214174 9.187749 2.8323407
-1.2449849 9.211691 1.5729905
-0.93373865 9.066842 1.8986019
-0.93373865 9.066842 1.8986019
-0.49081135 9.033323 2.790442
-0.49081135 9.033323 2.790442
-1.0342951 9.184157 1.8435353
-1.0031705 9.063251 2.36188
-1.0031705 9.063251 2.36188
-1.0941502 9.029732 2.9340942
-1.0941502 9.029732 2.9340942
-1.7729063 8.956709 2.802413
-1.614889 9.118318 1.9967642
-1.614889 9.118318 1.9967642
-1.6891093 8.930372 2.7269957
-1.6891093 8.930372 2.7269957
-2.12246 9.054871 1.7238252
-2.12246 9.054871 1.7238252
-2.12246 9.054871 1.7238252
-1.0546459 9.036914 1.661576
-1.0546459 9.036914 1.661576
-2.3582888 9.167398 2.1679497
-2.3582888 9.167398 2.1679497
-1.496376 9.220071 2.0326772
-1.5634137 9.186552 1.5011644
-1.5634137 9.186552 1.5011644
-1.5634137 9.186552 1.5011644
-1.5598224 9.109938 1.3754689
-1.5598224 9.109938 1.3754689
-1.5610195 9.270349 2.136825
-1.5610195 9.270349 2.136825
-1.496376 9.198523 1.3730747
-1.496376 9.198523 1.3730747
-1.7034745 9.386468 1.6747441
-1.7034745 9.386468 1.6747441
-1.5502456 9.388862 2.1296425
-1.4700398 9.51336 1.6795325
-1.4700398 9.51336 1.6795325
-0.91338795 9.2547865 1.3491327
-0.91338795 9.2547865 1.3491327
-2.0913353 9.346964 1.5574282
-1.9129672 9.481039 1.6292542
-1.9129672 9.481039 1.6292542
-1.9129672 9.481039 1.6292542
-1.1360487 9.76954 1.7776948
-1.4030021 9.85214 1.8806454
-1.4030021 9.85214 1.8806454
-1.4030021 9.85214 1.8806454
-1.3060371 9.88925 1.8471266
-1.3060371 9.88925 1.8471266
-1.6172832 9.731233 2.078167
-1.6172832 9.731233 2.078167
-1.6172832 9.731233 2.078167
-1.4030021 9.704897 2.3331497
-1.3838485 9.569624 1.7896658
-1.3838485 9.569624 1.7896658
-1.7178397 9.718064 2.005144
-1.7178397 9.718064 2.005144
-1.1552023 9.5385 2.2122424
-1.3826514 9.416395 1.5490485
-1.3826514 9.416395 1.5490485
-1.5275006 9.619903 2.328361
-1.5275006 9.619903 2.328361
-1.4628572 9.731233 1.6699557
-1.4628572 9.731233 1.6699557
-1.6663644 9.827001 2.1894975
-1.6663644 9.827001 2.1894975
-1.5765818 9.697714 1.8315643
-1.5765818 9.697714 1.8315643
-1.6651673 9.744401 1.8962077
-1.6651673 9.744401 1.8962077
-1.6795325 9.479841 1.9835961
-1.6795325 9.479841 1.9835961
-1.6795325 9.479841 1.9835961
-1.6807296 9.436746 1.7238252
-1.6807296 9.436746 1.7238252
-1.851915 9.449914 2.135628
-1.851915 9.449914 2.135628
-1.4867992 9.531317 1.6915035
-1.5047557 9.5492735 1.400608
-1.5047557 9.5492735 1.400608
-1.4975731 9.736021 2.078167
-1.4975731 9.736021 2.078167
-1.4975731 9.736021 2.078167
-1.0618285 9.894038 1.8938135
-1.0618285 9.894038 1.8938135
-1.0618285 9.894038 1.8938135
-1.3467385 9.768343 2.2732944
-1.3467385 9.768343 2.2732944
-1.4281414 9.787497 2.1296425
-1.0522517 9.759963 2.055422
-0.8655039 9.722853 1.9261353
-0.8655039 9.722853 1.9261353
-1.0690111 9.64983 2.111686
-1.0690111 9.64983 2.111686
-0.8367735 9.554062 2.0099323
-0.8367735 9.554062 2.0099323
-1.0773908 9.618706 1.7812861
-1.2330139 9.668983 1.9428947
-1.2330139 9.668983 1.9428947
-0.8559271 9.604341 1.8195933
-0.8559271 9.604341 1.8195933
-1.151611 9.665392 1.8004397
-1.0115502 9.739613 1.6567876
-1.0115502 9.739613 1.6567876
