0.5366509 0.20243503 0.27179694
0.53858536 0.2034438 0.27196342
0.5404326 0.20445506 0.27314436
0.54292494 0.20495367 0.2728377
0.546017 0.20530629 0.27195078
0.5484844 0.205616 0.27144155
0.23188658 0.53970206 0.7381112
0.2318906 0.54109925 0.7374334
0.23251414 0.5423136 0.7365672
0.23416322 0.5430155 0.73588634
0.23529081 0.543772 0.7354453
0.23530704 0.54526913 0.7347383
0.23516017 0.54706067 0.7337407
0.23545712 0.54856807 0.7326607
0.23610719 0.5498218 0.7317372
0.23627323 0.5510752 0.7313493
0.23655576 0.55272067 0.7307535
0.23727638 0.5547638 0.7295948
0.23727638 0.5547638 0.7295948
0.5680382 0.22048339 0.28360808
0.5680382 0.22048339 0.28360808
0.56966573 0.22027211 0.28445056
0.5714643 0.22005303 0.2852965
0.57342297 0.22012295 0.28557947
0.57507825 0.22031546 0.28586173
0.5765343 0.22036576 0.286297
0.5782283 0.2199873 0.28639445
0.5800469 0.21966037 0.28614286
0.5812017 0.21972677 0.2859994
0.5823032 0.21985038 0.28613847
0.5832908 0.21971641 0.28618193
0.5852631 0.21947727 0.28571925
0.58732474 0.21954405 0.28483537
0.5882673 0.22020628 0.28433558
0.5887674 0.22053696 0.28405708
0.5897737 0.22006626 0.28379774
0.5912727 0.21955346 0.28338262
0.5926129 0.2196112 0.28296468
0.5933254 0.22005549 0.28273588
0.59379447 0.2205736 0.28263724
0.594524 0.22072676 0.28255954
0.5955804 0.22044739 0.28272355
0.5964975 0.21992618 0.28291124
0.5968808 0.21974938 0.2831452
0.5969314 0.21968706 0.28331777
0.5972501 0.21849713 0.28429526
0.59748316 0.21619877 0.28590912
0.59748316 0.21619877 0.28590912
0.59704506 0.2159853 0.2862616
0.59666556 0.21486247 0.28687474
0.5963009 0.21254434 0.28816748
0.595729 0.21006781 0.28959405
0.5951546 0.20771618 0.29058957
0.5945525 0.20570165 0.29102832
0.59378386 0.2030954 0.29130623
0.5931948 0.1987697 0.29176202
0.593276 0.19384609 0.29176542
0.59325856 0.19110341 0.29047224
0.5911169 0.19124424 0.28859085
0.585888 0.19140486 0.28783667
0.5809009 0.18823598 0.28715205
0.5787437 0.18188089 0.28520635
0.5787027 0.17548175 0.28198388
0.5788455 0.17134735 0.27930543
0.5762013 0.16862531 0.27823487
0.57034963 0.16375247 0.27782547
0.5634745 0.15579805 0.27635223
0.55994976 0.14694053 0.27259687
0.56686234 0.13326913 0.26476604
0.5635705 0.13903007 0.26772833
0.5648478 0.12852879 0.2632429
0.5589 0.12426203 0.26076153
0.55274725 0.120457575 0.25608614
0.5492312 0.11559927 0.24973485
0.5445148 0.10978787 0.24550807
0.5366459 0.10274726 0.24368173
0.5294828 0.09783051 0.24101612
0.5251514 0.09759317 0.23653576
0.52260506 0.0972036 0.23121099
0.5186661 0.092836745 0.22604194
0.5130636 0.083994456 0.22198491
0.51628184 0.07484009 0.21142906
0.5128085 0.07574897 0.21710622
0.5158267 0.07883702 0.20423669
0.507601 0.08097179 0.1972128
0.49465504 0.07708978 0.193423
0.48771468 0.07233162 0.19017698
0.48638085 0.07204133 0.18545708
0.48207748 0.07441538 0.17976293
0.47088066 0.07591712 0.1753136
0.4586459 0.07448633 0.1727946
0.45531318 0.068807125 0.16885692
0.45531318 0.068807125 0.16885692
0.45531318 0.068807125 0.16885692
0.4568542 0.0663158 0.16486943
0.4568542 0.0663158 0.16486943
0.45776403 0.068844095 0.16216666
0.46080714 0.070329696 0.16007023
0.46348134 0.072676726 0.15772325
0.46610627 0.07458055 0.15579951
0.46904665 0.07557948 0.15360522
0.47216922 0.07664471 0.15072596
0.47567075 0.07844318 0.14717893
0.47955117 0.080890015 0.14325419
0.482327 0.082628734 0.14022727
0.48470452 0.0827488 0.13737637
0.48760325 0.08143309 0.13374673
0.49143207 0.080442645 0.129277
0.49648273 0.07943015 0.12515889
0.5015028 0.077575915 0.12266895
0.5054859 0.074959606 0.12111881
0.5076418 0.07146285 0.119893454
0.50997794 0.06827804 0.1170517
0.51232743 0.06850966 0.1132537
0.51232743 0.06850966 0.1132537
0.5122332 0.07271418 0.1048069
0.5122332 0.07271418 0.1048069
0.51977557 0.07074441 0.09718679
0.5292849 0.06992113 0.09032051
0.5355025 0.0701152 0.08571387
0.5385587 0.06905509 0.08114007
0.54312557 0.06569168 0.073910505
0.5508783 0.06122866 0.06630359
0.55747503 0.058231603 0.060855255
0.56038934 0.05746235 0.05643446
0.5614442 0.05735542 0.05100426
0.5644432 0.05573533 0.04405711
0.5690382 0.053345166 0.037792776
0.5729337 0.05122803 0.03267216
0.57564545 0.049627226 0.027180195
0.5784682 0.04896777 0.020658566
0.582053 0.048582006 0.014027598
0.5856399 0.047272284 0.008750505
0.58851135 0.044510644 0.00490107
0.591467 0.042139247 2.5437213E-4
0.595275 0.041233648 -0.0054008765
0.598544 0.040453084 -0.009976672
0.6005579 0.038705222 -0.012861387
0.6021327 0.036474112 -0.014721575
0.60489863 0.034197107 -0.018013503
0.6091987 0.032415967 -0.023012359
0.61256725 0.031182485 -0.02745863
0.61415595 0.030008454 -0.03064124
0.6143525 0.028956197 -0.032958962
0.6151054 0.027865337 -0.036540285
0.61703014 0.026631076 -0.041643735
0.6182404 0.026031297 -0.04614425
0.6182404 0.026031297 -0.04614425
0.61707795 0.028319543 -0.052430216
0.61707795 0.028319543 -0.052430216
0.616923 0.02857411 -0.06200675
0.61864215 0.02719112 -0.066533126
0.62011874 0.027643867 -0.06928909
0.6206812 0.029091544 -0.07148889
0.621267 0.02931074 -0.07446958
0.6230947 0.028206632 -0.078683645
0.6254788 0.026865087 -0.082333386
0.62750196 0.02560537 -0.08412183
0.6286983 0.025094297 -0.084718235
0.62864375 0.028954158 -0.08766347
0.62902087 0.026328871 -0.08577055
0.6284615 0.030847963 -0.08905343
0.6285221 0.0311905 -0.08857196
0.62876475 0.031153249 -0.08712117
0.6300004 0.032870777 -0.08659804
0.6315576 0.035232075 -0.08678253
0.6315576 0.035232075 -0.08678253
0.6312492 0.037815236 -0.08620843
0.6310577 0.03857722 -0.08617289
0.6310577 0.03857722 -0.08617289
0.63229775 0.037283044 -0.08596088
0.6335483 0.036806583 -0.08617976
0.6337562 0.037252814 -0.08596992
0.6338515 0.036867328 -0.08578344
0.6338515 0.036867328 -0.08578344
0.6343734 0.03685619 -0.08560227
0.63508475 0.03643549 -0.08522697
0.63590175 0.0357257 -0.08456297
0.63590175 0.0357257 -0.08456297
0.6356464 0.03996426 -0.0839366
0.63477355 0.04187493 -0.08506421
0.63477355 0.04187493 -0.08506421
0.63477355 0.04187493 -0.08506421
0.63514847 0.03756785 -0.08339265
0.6348909 0.03668646 -0.08311177
0.6343202 0.03651058 -0.082690366
0.6334266 0.036356207 -0.082446456
0.6330118 0.0355727 -0.08257854
0.63298005 0.034273006 -0.082762614
0.63288164 0.03338901 -0.0831541
0.6322757 0.033422593 -0.08346209
0.63137966 0.033430167 -0.08365726
0.63137966 0.033430167 -0.08365726
0.63167083 0.031742435 -0.08403121
0.63213384 0.03200706 -0.08433581
0.63213384 0.03200706 -0.08433581
0.63144547 0.03168057 -0.08423856
0.63144547 0.03168057 -0.08423856
0.632505 0.029242458 -0.08480198
0.632505 0.029242458 -0.08480198
0.6316544 0.030682443 -0.08489379
0.6314451 0.031150179 -0.085610636
0.6314451 0.031150179 -0.085610636
0.6316368 0.032423906 -0.08529163
0.6316368 0.032423906 -0.08529163
0.6316368 0.032423906 -0.08529163
0.632157 0.031457372 -0.086263016
0.63281214 0.030467827 -0.0869342
0.63281214 0.030467827 -0.0869342
0.6325297 0.030307382 -0.08721116
0.6325297 0.030307382 -0.08721116
0.6325396 0.02972041 -0.08817613
0.6329362 0.029742882 -0.08913513
0.63303715 0.029097404 -0.089509845
0.63303715 0.029097404 -0.089509845
0.63260067 0.028921178 -0.08961329
0.63260067 0.028921178 -0.08961329
0.63299584 0.02488443 -0.0902725
0.6336668 0.02233263 -0.09048741
0.6339743 0.02058638 -0.08944904
0.6339743 0.02058638 -0.08944904
0.6334937 0.019098619 -0.08890541
0.633396 0.014342536 -0.088522226
0.6334741 0.012354382 -0.08793762
0.6334741 0.012354382 -0.08793762
0.63307375 0.011140231 -0.08686705
0.63231975 0.011042257 -0.08606915
0.6323266 0.011237235 -0.08565619
0.6323266 0.011237235 -0.08565619
0.6328861 0.010025037 -0.08543746
0.63356924 0.009096224 -0.08466994
0.63430774 0.009329722 -0.08388013
0.63430774 0.009329722 -0.08388013
0.6345489 0.009055968 -0.082310736
0.6345489 0.009055968 -0.082310736
0.6351218 0.008720762 -0.081786305
0.635353 0.009870997 -0.081244834
0.6354586 0.009265482 -0.081303865
0.6354449 0.009186981 -0.08150455
0.6358394 0.0075335028 -0.08154991
0.6360848 0.006707086 -0.081152864
0.6361467 0.0067009926 -0.08097896
0.63636076 0.0061183646 -0.081371844
0.6363773 0.003186198 -0.08213012
